new chart[0]: S -> * NP VP [0, 0]
predictor: S -> * NP VP [0, 0]
new chart[0]: NP -> * John [0, 0]
new chart[0]: NP -> * Mary [0, 0]
new chart[0]: NP -> * Bob [0, 0]
new chart[0]: NP -> * Det N [0, 0]
new chart[0]: NP -> * Det N PP [0, 0]
scanner: NP -> * John [0, 0]
new chart[1]: NP -> John * [0, 1]
scanner: NP -> * Mary [0, 0]
scanner: NP -> * Bob [0, 0]
predictor: NP -> * Det N [0, 0]
new chart[0]: Det -> * a [0, 0]
new chart[0]: Det -> * an [0, 0]
new chart[0]: Det -> * the [0, 0]
new chart[0]: Det -> * my [0, 0]
predictor: NP -> * Det N PP [0, 0]
scanner: Det -> * a [0, 0]
scanner: Det -> * an [0, 0]
scanner: Det -> * the [0, 0]
scanner: Det -> * my [0, 0]
completer: NP -> John * [0, 1]
new chart[1]: S -> NP * VP [0, 1]
predictor: S -> NP * VP [0, 1]
new chart[1]: VP -> * V NP [1, 1]
new chart[1]: VP -> * V NP PP [1, 1]
predictor: VP -> * V NP [1, 1]
new chart[1]: V -> * saw [1, 1]
new chart[1]: V -> * ate [1, 1]
predictor: VP -> * V NP PP [1, 1]
scanner: V -> * saw [1, 1]
new chart[2]: V -> saw * [1, 2]
scanner: V -> * ate [1, 1]
completer: V -> saw * [1, 2]
new chart[2]: VP -> V * NP PP [1, 2]
new chart[2]: VP -> V * NP [1, 2]
predictor: VP -> V * NP PP [1, 2]
new chart[2]: NP -> * John [2, 2]
new chart[2]: NP -> * Mary [2, 2]
new chart[2]: NP -> * Bob [2, 2]
new chart[2]: NP -> * Det N [2, 2]
new chart[2]: NP -> * Det N PP [2, 2]
predictor: VP -> V * NP [1, 2]
scanner: NP -> * John [2, 2]
scanner: NP -> * Mary [2, 2]
new chart[3]: NP -> Mary * [2, 3]
scanner: NP -> * Bob [2, 2]
predictor: NP -> * Det N [2, 2]
new chart[2]: Det -> * a [2, 2]
new chart[2]: Det -> * an [2, 2]
new chart[2]: Det -> * the [2, 2]
new chart[2]: Det -> * my [2, 2]
predictor: NP -> * Det N PP [2, 2]
scanner: Det -> * a [2, 2]
scanner: Det -> * an [2, 2]
scanner: Det -> * the [2, 2]
scanner: Det -> * my [2, 2]
completer: NP -> Mary * [2, 3]
new chart[3]: VP -> V NP * PP [1, 3]
new chart[3]: VP -> V NP * [1, 3]
predictor: VP -> V NP * PP [1, 3]
new chart[3]: PP -> * P NP [3, 3]
completer: VP -> V NP * [1, 3]
new chart[3]: S -> NP VP * [0, 3]
predictor: PP -> * P NP [3, 3]
new chart[3]: P -> * in [3, 3]
new chart[3]: P -> * on [3, 3]
new chart[3]: P -> * by [3, 3]
new chart[3]: P -> * with [3, 3]
completer: S -> NP VP * [0, 3]
scanner: P -> * in [3, 3]
new chart[4]: P -> in * [3, 4]
scanner: P -> * on [3, 3]
scanner: P -> * by [3, 3]
scanner: P -> * with [3, 3]
completer: P -> in * [3, 4]
new chart[4]: PP -> P * NP [3, 4]
predictor: PP -> P * NP [3, 4]
new chart[4]: NP -> * John [4, 4]
new chart[4]: NP -> * Mary [4, 4]
new chart[4]: NP -> * Bob [4, 4]
new chart[4]: NP -> * Det N [4, 4]
new chart[4]: NP -> * Det N PP [4, 4]
scanner: NP -> * John [4, 4]
scanner: NP -> * Mary [4, 4]
scanner: NP -> * Bob [4, 4]
predictor: NP -> * Det N [4, 4]
new chart[4]: Det -> * a [4, 4]
new chart[4]: Det -> * an [4, 4]
new chart[4]: Det -> * the [4, 4]
new chart[4]: Det -> * my [4, 4]
predictor: NP -> * Det N PP [4, 4]
scanner: Det -> * a [4, 4]
scanner: Det -> * an [4, 4]
scanner: Det -> * the [4, 4]
new chart[5]: Det -> the * [4, 5]
scanner: Det -> * my [4, 4]
completer: Det -> the * [4, 5]
new chart[5]: NP -> Det * N PP [4, 5]
new chart[5]: NP -> Det * N [4, 5]
predictor: NP -> Det * N PP [4, 5]
new chart[5]: N -> * dog [5, 5]
new chart[5]: N -> * cat [5, 5]
new chart[5]: N -> * cookie [5, 5]
new chart[5]: N -> * park [5, 5]
predictor: NP -> Det * N [4, 5]
scanner: N -> * dog [5, 5]
scanner: N -> * cat [5, 5]
scanner: N -> * cookie [5, 5]
scanner: N -> * park [5, 5]
new chart[6]: N -> park * [5, 6]
completer: N -> park * [5, 6]
new chart[6]: NP -> Det N * [4, 6]
new chart[6]: NP -> Det N * PP [4, 6]
completer: NP -> Det N * [4, 6]
new chart[6]: PP -> P NP * [3, 6]
predictor: NP -> Det N * PP [4, 6]
new chart[6]: PP -> * P NP [6, 6]
completer: PP -> P NP * [3, 6]
new chart[6]: VP -> V NP PP * [1, 6]
predictor: PP -> * P NP [6, 6]
new chart[6]: P -> * in [6, 6]
new chart[6]: P -> * on [6, 6]
new chart[6]: P -> * by [6, 6]
new chart[6]: P -> * with [6, 6]
completer: VP -> V NP PP * [1, 6]
new chart[6]: S -> NP VP * [0, 6]
scanner: P -> * in [6, 6]
scanner: P -> * on [6, 6]
scanner: P -> * by [6, 6]
scanner: P -> * with [6, 6]
new chart[7]: P -> with * [6, 7]
completer: S -> NP VP * [0, 6]
completer: P -> with * [6, 7]
new chart[7]: PP -> P * NP [6, 7]
predictor: PP -> P * NP [6, 7]
new chart[7]: NP -> * John [7, 7]
new chart[7]: NP -> * Mary [7, 7]
new chart[7]: NP -> * Bob [7, 7]
new chart[7]: NP -> * Det N [7, 7]
new chart[7]: NP -> * Det N PP [7, 7]
scanner: NP -> * John [7, 7]
scanner: NP -> * Mary [7, 7]
scanner: NP -> * Bob [7, 7]
new chart[8]: NP -> Bob * [7, 8]
predictor: NP -> * Det N [7, 7]
new chart[7]: Det -> * a [7, 7]
new chart[7]: Det -> * an [7, 7]
new chart[7]: Det -> * the [7, 7]
new chart[7]: Det -> * my [7, 7]
predictor: NP -> * Det N PP [7, 7]
scanner: Det -> * a [7, 7]
scanner: Det -> * an [7, 7]
scanner: Det -> * the [7, 7]
scanner: Det -> * my [7, 7]
completer: NP -> Bob * [7, 8]
new chart[8]: PP -> P NP * [6, 8]
completer: PP -> P NP * [6, 8]
new chart[8]: NP -> Det N PP * [4, 8]
completer: NP -> Det N PP * [4, 8]
new chart[8]: PP -> P NP * [3, 8]
completer: PP -> P NP * [3, 8]
new chart[8]: VP -> V NP PP * [1, 8]
completer: VP -> V NP PP * [1, 8]
new chart[8]: S -> NP VP * [0, 8]
completer: S -> NP VP * [0, 8]
yes
